The check date 2021 FEB 17 is before the initial date 2021 FEB 22
The check date 2021 FEB 22 is the same day or after the initial date 2021 FEB 22
The check date 2021 FEB 26 is the same day or after the initial date 2021 FEB 22
